{
  "project_info": {
    "project_number": "801058141445",
    "firebase_url": "https://my-first-project-2ee6d.firebaseio.com",
    "project_id": "my-first-project-2ee6d",
    "storage_bucket": "my-first-project-2ee6d.appspot.com"
  },
  "client": [
    {
      "client_info": {
        "mobilesdk_app_id": "1:801058141445:android:089725b7b9f143d0be336c",
        "android_client_info": {
          "package_name": "com.mabydan.chargegoldbattery"
        }
      },
      "oauth_client": [
        {
          "client_id": "801058141445-2q220mjn1mdn7p3s5rgn6fi508i2nj6q.apps.googleusercontent.com",
          "client_type": 3
        }
      ],
      "api_key": [
        {
          "current_key": "AIzaSyCjBXeXvwfkjBrxyDN-8SC1HlV9bLTTBRA"
        }
      ],
      "services": {
        "appinvite_service": {
          "other_platform_oauth_client": [
            {
              "client_id": "801058141445-2q220mjn1mdn7p3s5rgn6fi508i2nj6q.apps.googleusercontent.com",
              "client_type": 3
            }
          ]
        }
      }
    }
  ],
  "configuration_version": "1"
}